Case_Study
…
## Brewery_id       Beer    Beer_ID        ABV        IBU      Style         OZ    Brewery       City 
##          0          0          0         62       1005          0          0          0          0 
##      State 
##          0

# 4. Compute the median alcohol content unit for each state.
okay_beer <- Brew_beers %>%
  na.omit() %>%
  group_by(State) %>%
  summarise(Median = median(ABV)) %>%
  arrange(Median)

okay_beer

## # A tibble: 50 x 2
##    State Median
##    <chr>  <dbl>
##  1 " AR" 0.04  
##  2 " UT" 0.04  
##  3 " NJ" 0.046 
##  4 " NH" 0.0465
##  5 " KS" 0.05  
##  6 " MO" 0.05  
##  7 " ND" 0.05  
##  8 " SC" 0.05  
##  9 " WI" 0.051 
## 10 " LA" 0.051 
## # … with 40 more rows

# 4. a Compute the median international bitterness unit for each state.
Bitterness <- Brew_beers %>%
  na.omit() %>%
  group_by(State) %>%
  summarise(Median = median(IBU)) %>%
  arrange(Median)

Bitterness

## # A tibble: 50 x 2
##    State Median
##    <chr>  <dbl>
##  1 " WI"   19  
##  2 " KS"   20  
##  3 " AZ"   20.5
##  4 " WY"   21  
##  5 " HI"   22.5
##  6 " MO"   24  
##  7 " RI"   24  
##  8 " IA"   26  
##  9 " CT"   29  
## 10 " MD"   29  
## # … with 40 more rows
…
